---
source: src/parse.rs
expression: tpl
input_file: src/templates/page.html
---
parts:
  - HtmlLit: "<!DOCTYPE html>\n<html lang=\"en\">\n<head>\n    <title>My Webpage</title>\n</head>\n<body>\n    <ul id=\"navigation\">\n    "
  - For:
      name: item
      iter_over:
        items:
          - Map: navigation
      each:
        - HtmlLit: "\n        <li><a href=\""
        - PutEscaped:
            items:
              - Map: item
              - Map: href
        - HtmlLit: "\">"
        - PutEscaped:
            items:
              - Map: item
              - Map: caption
        - HtmlLit: "</a></li>\n    "
  - HtmlLit: "\n    </ul>\n\n    <h1>My Webpage</h1>\n    "
  - PutEscaped:
      items:
        - Map: a_variable
  - HtmlLit: "\n\n    "
  - Comment
  - HtmlLit: "\n</body>\n</html>"
